<?xml version="1.0" encoding="UTF-8" standalone="no"?>
<!-- Created with Inkscape (http://www.inkscape.org/) -->

<svg
   xmlns:dc="http://purl.org/dc/elements/1.1/"
   xmlns:cc="http://creativecommons.org/ns#"
   xmlns:rdf="http://www.w3.org/1999/02/22-rdf-syntax-ns#"
   xmlns:svg="http://www.w3.org/2000/svg"
   xmlns="http://www.w3.org/2000/svg"
   xmlns:sodipodi="http://sodipodi.sourceforge.net/DTD/sodipodi-0.dtd"
   xmlns:inkscape="http://www.inkscape.org/namespaces/inkscape"
   version="1.1"
   id="svg3732"
   xml:space="preserve"
   width="800"
   height="800"
   viewBox="0 0 800 800"
   sodipodi:docname="pig-silhouette-publicdomainvectors.org (2).svg"
   inkscape:version="0.92.4 (5da689c313, 2019-01-14)"><metadata
     id="metadata3738"><rdf:RDF><cc:Work
         rdf:about=""><dc:format>image/svg+xml</dc:format><dc:type
           rdf:resource="http://purl.org/dc/dcmitype/StillImage" /><dc:title></dc:title></cc:Work></rdf:RDF></metadata><defs
     id="defs3736"><clipPath
       clipPathUnits="userSpaceOnUse"
       id="clipPath3748"><path
         d="M 0,600 H 600 V 0 H 0 Z"
         id="path3746"
         inkscape:connector-curvature="0" /></clipPath></defs><sodipodi:namedview
     pagecolor="#ffffff"
     bordercolor="#666666"
     borderopacity="1"
     objecttolerance="10"
     gridtolerance="10"
     guidetolerance="10"
     inkscape:pageopacity="0"
     inkscape:pageshadow="2"
     inkscape:window-width="1920"
     inkscape:window-height="1018"
     id="namedview3734"
     showgrid="false"
     inkscape:zoom="0.85479522"
     inkscape:cx="427.11864"
     inkscape:cy="391.52542"
     inkscape:window-x="-8"
     inkscape:window-y="-8"
     inkscape:window-maximized="1"
     inkscape:current-layer="g3740" /><g
     id="g3740"
     inkscape:groupmode="layer"
     inkscape:label="pig-silhouette-publicdomainvectors.org (2)"
     transform="matrix(1.3333333,0,0,-1.3333333,0,800)"><g
       id="g3742"><g
         id="g3744"
         clip-path="url(#clipPath3748)"><path
           d="m 119.008,191.683 c -1.605,16.314 -6.894,30.848 17.6,56.977 6.742,7.188 -44.818,-23.407 -43.73,-38.83 9.981,-13.068 12.521,-33.568 10.344,-38.288 7.922,-1.979 8.735,-2.133 8.798,-2.141 0.001,-0.005 0.02,-0.011 0.094,-0.038 0.541,-0.178 1.994,-8.709 4.171,-10.161 1.966,-1.309 14.73,-4.244 21.733,-0.264 l -1.634,9.032 3.149,-7.977 c 0.178,0.155 0.355,0.313 0.522,0.481 3.538,4.537 -6.168,16.514 -6.168,16.514 0,0 -13.79,3.624 -14.879,14.695 m 287.956,52.258 c 0.816,2.561 9.474,17.071 10.619,19.324 0,0 -11.577,0.578 -14.155,-1.905 -12.499,-11.996 -10.796,-30.121 -30.121,-45.513 7.453,-18.499 -1.867,-29.871 0.962,-38.859 8.062,-4.631 10.956,-13.806 10.652,-20.007 5.001,-5.132 17.328,-4.717 23.738,-2.457 l -0.866,9.309 3.011,-8.359 c 0.967,0.554 1.609,1.167 1.808,1.8 1.287,4.114 -6.422,18.496 -8.995,20.039 -2.566,1.542 -15.15,6.163 -11.555,24.402 3.596,18.24 7.584,19.104 14.902,42.226 m 190.708,86.185 c -0.184,-5.988 -2.634,-19.502 -6.173,-25.219 -3.538,-5.717 -17.962,-1.452 -24.5,-4.253 -4.277,-1.837 -8.704,-5.367 -17.052,1.715 -4.319,3.662 -4.172,2.538 -10.705,0.086 -6.532,-2.451 -8.98,1.909 -13.881,1.909 -4.903,0 5.717,-7.082 7.623,-10.345 1.901,-3.267 41.37,-2.451 41.37,-2.451 0,0 1.083,-8.435 -13.884,-12.791 -14.968,-4.353 -26.943,4.9 -48.172,-8.707 -21.232,-13.614 -36.474,-5.173 -47.886,1.744 -17.554,10.643 -17.965,28.17 -17.965,37.968 0,0 -6.529,-12.658 0,-31.843 -9.384,-12.247 -18.251,-6.508 -38.665,-10.591 -0.545,3.806 30.213,27.489 20.684,36.197 -5.713,-19.868 -29.778,-29.691 -37.537,-54.181 -7.755,-24.496 -25.332,-29.647 -29.144,-48.971 -3.812,-19.325 9.527,-24.222 12.25,-25.855 2.721,-1.632 10.886,-16.878 9.525,-21.233 -0.281,-0.898 -1.36,-1.711 -2.95,-2.38 l -4.13,10.457 1.066,-11.413 c -6.854,-1.589 -17.665,-1.142 -22.473,3.792 1.815,7.076 -1.725,13.968 -11.525,15.602 -2.994,9.532 6.264,26.4 -1.629,46.001 -7.897,19.596 1.085,19.049 -10.616,41.641 -11.705,22.589 2.45,27.49 4.354,32.389 1.905,4.895 8.71,23.68 3.266,31.571 0,0 -7.894,-29.67 -15.515,-37.016 -7.62,-7.35 2.611,-18.664 2.611,-18.664 0,0 -9.389,-15.514 -60.826,-30.619 -51.438,-15.107 -124.981,6.508 -124.362,22.701 1.12,29.266 32.434,43.945 47.854,44.276 -34.296,2.721 -46.816,-15.787 -56.886,-38.108 -3.535,-7.831 2.993,-13.065 -22.046,-26.128 -25.041,-13.065 -25.313,-36.741 -21.774,-50.625 5.529,-21.685 18.782,-19.594 18.782,-19.594 0,0 8.981,-13.61 5.443,-18.779 -0.215,-0.314 -0.447,-0.605 -0.69,-0.881 l -3.177,8.32 1.157,-10.009 c -7.536,-4.613 -21.515,1.209 -21.515,1.209 0,0 -1.632,5.168 -2.72,8.012 -1.091,2.842 -12.894,1.427 -12.566,5.066 2.734,30.308 -24.275,38.617 -16.286,50.061 16.886,24.201 10.343,42.462 2.916,55.569 -20.702,36.546 -31.496,86.623 -16.506,124.957 -0.53,-0.215 -1.066,-0.425 -1.609,-0.627 -4.765,-1.754 -10.07,-3.073 -15.764,-3.236 -2.839,-0.073 -5.772,0.14 -8.69,0.789 -2.915,0.658 -5.824,1.757 -8.476,3.411 -2.65,1.644 -5.01,3.852 -6.802,6.436 -0.901,1.289 -1.663,2.662 -2.285,4.084 l -0.232,0.53 -0.208,0.542 c -0.142,0.357 -0.276,0.721 -0.392,1.083 l -0.178,0.551 -0.047,0.135 c -0.004,0.013 -0.051,0.165 -0.039,0.131 l -0.016,0.061 -0.068,0.246 -0.07,0.25 -0.034,0.126 -0.036,0.152 -0.147,0.631 c -0.672,3.18 -0.501,6.365 0.215,9.325 0.355,1.488 0.846,2.917 1.444,4.283 0.596,1.37 1.301,2.671 2.096,3.907 0.788,1.237 1.673,2.398 2.633,3.484 0.955,1.089 1.993,2.096 3.103,3.01 2.211,1.821 4.727,3.275 7.431,4.134 1.348,0.436 2.752,0.694 4.15,0.796 1.401,0.094 2.802,-0.005 4.15,-0.268 2.7,-0.543 5.122,-1.802 7.088,-3.372 0.494,-0.394 0.967,-0.804 1.412,-1.229 l 0.17,-0.157 c 0.01,-0.01 0.065,-0.065 0.062,-0.061 l 0.035,-0.039 0.077,-0.074 0.303,-0.314 0.153,-0.158 0.158,-0.177 0.318,-0.354 c 0.812,-0.935 1.506,-1.949 2.05,-3.025 1.106,-2.14 1.552,-4.533 1.352,-6.739 -0.186,-2.211 -0.953,-4.219 -1.975,-5.894 -1.033,-1.677 -2.317,-3.056 -3.699,-4.103 -1.386,-1.053 -2.865,-1.784 -4.314,-2.179 -1.446,-0.398 -2.857,-0.448 -4.076,-0.223 -1.223,0.228 -2.235,0.711 -3.02,1.244 -0.784,0.541 -1.35,1.119 -1.773,1.61 -0.413,0.501 -0.695,0.905 -0.874,1.189 -0.174,0.281 -0.267,0.43 -0.267,0.43 0,0 0.1,-0.14 0.292,-0.411 0.195,-0.271 0.501,-0.658 0.941,-1.129 0.446,-0.452 1.037,-0.986 1.825,-1.461 0.789,-0.465 1.784,-0.866 2.947,-1.011 1.159,-0.139 2.472,-0.01 3.796,0.445 1.326,0.451 2.665,1.222 3.888,2.278 1.224,1.048 2.331,2.402 3.176,3.985 0.831,1.582 1.394,3.411 1.433,5.325 0.054,1.916 -0.447,3.886 -1.495,5.64 -0.513,0.875 -1.165,1.709 -1.904,2.461 l -0.273,0.275 -0.14,0.137 -0.159,0.145 -0.32,0.291 -0.08,0.072 -0.042,0.039 c -0.034,0.029 -10e-4,0 -0.02,0.013 l -0.158,0.129 c -0.421,0.354 -0.857,0.69 -1.307,1.006 -1.803,1.262 -3.884,2.165 -6.083,2.466 -1.1,0.141 -2.223,0.152 -3.346,0.007 -1.118,-0.156 -2.236,-0.431 -3.318,-0.859 -2.167,-0.835 -4.203,-2.18 -5.98,-3.844 -0.891,-0.828 -1.724,-1.739 -2.478,-2.719 -0.76,-0.973 -1.451,-2.006 -2.049,-3.093 -0.604,-1.086 -1.127,-2.219 -1.548,-3.376 -0.426,-1.159 -0.751,-2.351 -0.959,-3.55 -0.214,-1.196 -0.297,-2.399 -0.267,-3.581 0.026,-0.591 0.065,-1.179 0.16,-1.755 0.077,-0.568 0.211,-1.151 0.353,-1.675 l 0.109,-0.373 0.03,-0.092 0.041,-0.123 0.081,-0.246 0.084,-0.241 0.022,-0.061 c 0.026,-0.077 -0.01,0.035 0,0.005 l 0.041,-0.105 0.173,-0.423 c 0.108,-0.286 0.232,-0.562 0.36,-0.833 l 0.184,-0.411 0.209,-0.4 c 0.549,-1.066 1.191,-2.066 1.917,-2.978 1.456,-1.831 3.262,-3.316 5.284,-4.401 2.024,-1.092 4.252,-1.788 6.541,-2.155 2.29,-0.361 4.638,-0.39 6.941,-0.188 4.622,0.418 9.055,1.797 13.046,3.559 3.998,1.783 7.579,3.962 10.704,6.23 0.401,0.293 0.795,0.587 1.184,0.881 17.442,27.737 52.499,45.979 113.171,42.002 57.666,-3.78 58.755,20.714 162.072,-4.491 33.883,-8.27 67.674,11.001 91.854,-14.289 23.386,-24.466 45.428,-32.72 45.428,-32.177 0,0.541 20.509,23.587 40.465,6.713 19.958,-16.875 33.206,-9.074 38.468,-5.082 2.72,-5.26 -4.173,-17.961 -26.312,-9.616 -22.134,8.347 -45.542,-30.121 -33.929,-28.123 3.811,7.981 19.778,24.859 27.035,21.773 7.255,-3.086 11.432,-13.063 18.145,-24.68 6.712,-11.61 43.732,-31.205 46.267,-31.932 2.541,-0.726 17.603,6.174 17.603,6.174 l 0.544,0.533 c 0.543,0.538 7.076,4.361 6.899,-1.628"
           style="fill:#000000;fill-opacity:1;fill-rule:nonzero;stroke:none"
           id="path3750"
           inkscape:connector-curvature="0" /></g></g></g></svg>